{
    "id": 3,
    "name": "Europol",
    "title": "Europol: Ausweitung der Befugnisse",
    "description": "Europol soll künftig auch Daten mit Unternehmen und nicht-europäischen Drittstaaten austauschen dürfen. Das bislang illegale Vorratsspeichern von Daten unschuldiger Dritter soll dabei nachträglich erlaubt werden.",
    "terms": [{
        "term": "Europol ",
        "explanation": "ist eine europäische Polizeibehörde ohne eigene Exekutivgewalt. Die Aufgabe dieser EU-Agentur ist die Unterstützung nationaler Polizeibehörden wie dem BKA bei der Bekämpfung internationalier Kriminalität vor allem durch Datenaustausch. In der Vergangenheit hatten EU-Staaten Europol gern zum Speichern beliebiger Daten, von Demonstrationsteilnehmenden-Daten über Passagierdaten bis hin zu biometrischen Überwachungsaufnahmen genutzt.",
        "link": null
    }],
    "howtheyvote": [{
        "title": "Abstimmung auf howtheyvote",
        "link": "https://howtheyvote.eu/votes/142263",
        "date": "04.05.2022"
    }],
    "background": [{
            "title": null,
            "link": "https://www.bpb.de/kurz-knapp/lexika/politiklexikon/17467/europol/",
            "date": null
        },
        {
            "title": null,
            "link": "https://netzpolitik.org/2022/eu-parlament-stimmt-zu-neue-europol-verordnung-auf-der-zielgeraden/",
            "date": null
        },
        {
            "title": null,
            "link": "https://netzpolitik.org/2022/klage-von-datenschuetzer-europols-riesige-datenberge-landen-vor-eu-gericht/",
            "date": null
        }
    ]
}
